S3/SSS/Versuch 1/messwerte/m3.csv

Record Length,2500,Points,-1.000000E-6,1.0720000,
Sample Interval,3.99999989E-9,s,-996.000039777E-9,1.0720000,
Trigger Point,250.00000644,Samples,-991.999968392E-9,1.0800000,
,,,-988.000010693E-9,1.0800000,
,,,-984.000052995E-9,1.0800000,
,,,-979.999981610E-9,1.0720000,
Source,CH1,,-976.000023911E-9,1.0880001,
Vertical Units,Volts,,-971.999952526E-9,1.0720000,
Vertical Scale,200.00000950E-3,,-967.999994828E-9,1.0800000,
Vertical Offset,0,,-964.000037129E-9,1.0720000,
Horizontal Units,s,,-959.999965744E-9,1.0880001,
Horizontal Scale,1.000000E-6,,-956.000008046E-9,1.0720000,
Pt Fmt,Y,,-951.999993504E-9,1.0800000,
Yzero,-3.00000000,,-947.999978962E-9,1.0720000,
Probe Atten,1.000000,,-944.000021263E-9,1.0800000,
,,,-940.000006722E-9,1.0640000,
Note,TDS 2022B - 14:23:09   18.09.2014,,-935.999992180E-9,1.0720000,
,,,-931.999977638E-9,1.0800000,
,,,-928.000019940E-9,1.0720000,
,,,-924.000005398E-9,1.0800000,
,,,-919.999990856E-9,1.0800000,
,,,-915.999976314E-9,1.0720000,
,,,-912.000018616E-9,1.0720000,
,,,-908.000004074E-9,1.0720000,
,,,-903.999989532E-9,1.0720000,
,,,-899.999974990E-9,1.0800000,
,,,-896.000017292E-9,1.0800000,
,,,-892.000002750E-9,1.0800000,
,,,-887.999988208E-9,1.0720000,
,,,-883.999973667E-9,1.0720000,
,,,-880.000015968E-9,1.0640000,
,,,-876.000001426E-9,1.0720000,
,,,-871.999986884E-9,1.0720000,
,,,-868.000029186E-9,1.0720000,
,,,-864.000014644E-9,1.0720000,
,,,-860.000000102E-9,1.0720000,
,,,-855.999985561E-9,1.0640000,
,,,-852.000027862E-9,1.0800000,
,,,-848.000013320E-9,1.0720000,
,,,-843.999998779E-9,1.0720000,
,,,-839.999984237E-9,1.0720000,
,,,-836.000026538E-9,1.0720000,
,,,-832.000011997E-9,1.0720000,
,,,-827.999997455E-9,1.0880001,
,,,-823.999982913E-9,1.0720000,
,,,-820.000025215E-9,1.0720000,
,,,-816.000010673E-9,1.0720000,
,,,-811.999996131E-9,1.0720000,
,,,-807.999981589E-9,1.0800000,
,,,-804.000023891E-9,1.0800000,
,,,-800.000009349E-9,1.0800000,
,,,-795.999994807E-9,1.0720000,
,,,-791.999980265E-9,1.0800000,
,,,-788.000022567E-9,1.0720000,
,,,-784.000008025E-9,1.0720000,
,,,-779.999993483E-9,1.0800000,
,,,-775.999978941E-9,1.0800000,
,,,-772.000021243E-9,1.0800000,
,,,-768.000006701E-9,1.0880001,
,,,-763.999992159E-9,1.0800000,
,,,-759.999977618E-9,1.0720000,
,,,-756.000019919E-9,1.0720000,
,,,-752.000005377E-9,1.0720000,
,,,-747.999990836E-9,1.0640000,
,,,-743.999976294E-9,1.0800000,
,,,-740.000018595E-9,1.0720000,
,,,-736.000004053E-9,1.0720000,
,,,-731.999989512E-9,1.0640000,
,,,-728.000031813E-9,1.0800000,
,,,-724.000017271E-9,1.0720000,
,,,-720.000002730E-9,1.0720000,
,,,-715.999988188E-9,1.0720000,
,,,-712.000030489E-9,1.0800000,
,,,-708.000015948E-9,1.0800000,
,,,-704.000001406E-9,1.0800000,
,,,-699.999986864E-9,1.0800000,
,,,-696.000029166E-9,1.0880001,
,,,-692.000014624E-9,1.0720000,
,,,-688.000000082E-9,1.0800000,
,,,-683.999985540E-9,1.0800000,
,,,-680.000027842E-9,1.0880001,
,,,-676.000013300E-9,1.0800000,
,,,-671.999998758E-9,1.0720000,
,,,-667.999984216E-9,1.0720000,
,,,-664.000026518E-9,1.0800000,
,,,-660.000011976E-9,1.0800000,
,,,-655.999997434E-9,1.0880001,
,,,-651.999982892E-9,1.0800000,
,,,-648.000025194E-9,1.0720000,
,,,-644.000010652E-9,1.0720000,
,,,-639.999996110E-9,1.0800000,
,,,-635.999981569E-9,1.0720000,
,,,-632.000023870E-9,1.0720000,
,,,-628.000009328E-9,1.0640000,
,,,-623.999994787E-9,1.0800000,
,,,-619.999980245E-9,1.0720000,
,,,-616.000022546E-9,1.0720000,
,,,-612.000008005E-9,1.0720000,
,,,-607.999993463E-9,1.0800000,
,,,-604.000035764E-9,1.0720000,
,,,-600.000021223E-9,1.0720000,
,,,-596.000006681E-9,1.0800000,
,,,-591.999992139E-9,1.0800000,
,,,-588.000034440E-9,1.0720000,
,,,-584.000019899E-9,1.0720000,
,,,-580.000005357E-9,1.0800000,
,,,-575.999990815E-9,1.0640000,
,,,-572.000033117E-9,1.0800000,
,,,-568.000018575E-9,1.0720000,
,,,-564.000004033E-9,1.0880001,
,,,-559.999989491E-9,1.0800000,
,,,-556.000031793E-9,1.0800000,
,,,-552.000017251E-9,1.0800000,
,,,-548.000002709E-9,1.0800000,
,,,-543.999988167E-9,1.0800000,
,,,-540.000030469E-9,1.0720000,
,,,-536.000015927E-9,1.0640000,
,,,-532.000001385E-9,1.0720000,
,,,-527.999986843E-9,1.0800000,
,,,-524.000029145E-9,1.0800000,
,,,-520.000014603E-9,1.0800000,
,,,-516.000000061E-9,1.0640000,
,,,-511.999985520E-9,1.0720000,
,,,-508.000027821E-9,1.0720000,
,,,-504.000013279E-9,1.0640000,
,,,-499.999998738E-9,1.0800000,
,,,-495.999984196E-9,1.0720000,
,,,-492.000026497E-9,1.0720000,
,,,-488.000011956E-9,1.0720000,
,,,-483.999997414E-9,1.0720000,
,,,-480.000039715E-9,1.0800000,
,,,-476.000025174E-9,1.0720000,
,,,-472.000010632E-9,1.0720000,
,,,-468.000024512E-9,1.0720000,
,,,-464.000009970E-9,1.0800000,
,,,-460.000023850E-9,1.0800000,
,,,-456.000009308E-9,1.0720000,
,,,-452.000023188E-9,1.0720000,
,,,-448.000008646E-9,1.0720000,
,,,-444.000022526E-9,1.0720000,
,,,-440.000007984E-9,1.0800000,
,,,-436.000021864E-9,1.0720000,
,,,-432.000007322E-9,1.0880001,
,,,-428.000021202E-9,1.0800000,
,,,-424.000006660E-9,1.0720000,
,,,-420.000020540E-9,1.0640000,
,,,-416.000005998E-9,1.0640000,
,,,-412.000019878E-9,1.0720000,
,,,-408.000005336E-9,1.0720000,
,,,-404.000019216E-9,1.0720000,
,,,-400.00000467E-9,1.0720000,
,,,-396.00001855E-9,1.0640000,
,,,-392.00000401E-9,1.0720000,
,,,-388.00001789E-9,1.0640000,
,,,-384.00000335E-9,1.0640000,
,,,-380.00001723E-9,1.0720000,
,,,-376.00000269E-9,1.0640000,
,,,-372.00001657E-9,1.0800000,
,,,-368.00000203E-9,1.0720000,
,,,-364.00001591E-9,1.0720000,
,,,-360.00000136E-9,1.0800000,
,,,-356.00001524E-9,1.0720000,
,,,-352.00002912E-9,1.0720000,
,,,-348.00001458E-9,1.0880001,
,,,-344.00002846E-9,1.0720000,
,,,-340.00001392E-9,1.0800000,
,,,-336.00002780E-9,1.0800000,
,,,-332.00001326E-9,1.0800000,
,,,-328.00002714E-9,1.0720000,
,,,-324.00001260E-9,1.0800000,
,,,-320.00002648E-9,1.0720000,
,,,-316.00001194E-9,1.0720000,
,,,-312.00002581E-9,1.0720000,
,,,-308.00001127E-9,1.0720000,
,,,-304.00002515E-9,1.0720000,
,,,-300.00001061E-9,1.0880001,
,,,-296.00002449E-9,1.0720000,
,,,-292.00000995E-9,1.0720000,
,,,-288.00002383E-9,1.0640000,
,,,-284.00000929E-9,1.0800000,
,,,-280.00002317E-9,1.0720000,
,,,-276.00000863E-9,1.0720000,
,,,-272.00002251E-9,1.0800000,
,,,-268.00000796E-9,1.0720000,
,,,-264.00002184E-9,1.0800000,
,,,-260.00000730E-9,1.0800000,
,,,-256.00002118E-9,1.0800000,
,,,-252.00000664E-9,1.0800000,
,,,-248.00002052E-9,1.0800000,
,,,-244.00000598E-9,1.0800000,
,,,-240.00001986E-9,1.0800000,
,,,-236.00001953E-9,1.0720000,
,,,-232.00001920E-9,1.0720000,
,,,-228.00001886E-9,1.0720000,
,,,-224.00001853E-9,1.0800000,
,,,-220.00001820E-9,1.0720000,
,,,-216.00001787E-9,1.0720000,
,,,-212.00001754E-9,1.0800000,
,,,-208.00001721E-9,1.0800000,
,,,-204.00001688E-9,1.0800000,
,,,-200.00001655E-9,1.0880001,
,,,-196.00001622E-9,1.0800000,
,,,-192.00001589E-9,1.0800000,
,,,-188.00001556E-9,1.0720000,
,,,-184.00001522E-9,1.0880001,
,,,-180.00001489E-9,1.0640000,
,,,-176.00001456E-9,1.0720000,
,,,-172.00001423E-9,1.0800000,
,,,-168.00001390E-9,1.0880001,
,,,-164.00002778E-9,1.0720000,
,,,-160.00002745E-9,1.0800000,
,,,-156.00002712E-9,1.0720000,
,,,-152.00002679E-9,1.0800000,
,,,-148.0000265E-9,1.0640000,
,,,-144.0000261E-9,1.0720000,
,,,-140.0000258E-9,1.0800000,
,,,-136.0000255E-9,1.0720000,
,,,-132.0000251E-9,1.0800000,
,,,-128.0000248E-9,1.0800000,
,,,-124.0000245E-9,1.0720000,
,,,-120.0000241E-9,1.0800000,
,,,-116.0000238E-9,1.0720000,
,,,-112.0000235E-9,1.0720000,
,,,-108.0000231E-9,1.0800000,
,,,-104.0000228E-9,1.0800000,
,,,-100.0000225E-9,1.0720000,
,,,-96.000022154E-9,1.0800000,
,,,-92.000021823E-9,1.0800000,
,,,-88.000021492E-9,1.0800000,
,,,-84.000021161E-9,1.0720000,
,,,-80.000020830E-9,1.0800000,
,,,-76.000020499E-9,1.1360000,
,,,-72.000020168E-9,1.1520001,
,,,-68.000026943E-9,1.1520001,
,,,-64.000026612E-9,1.1440001,
,,,-60.000026281E-9,1.1360000,
,,,-56.000025950E-9,1.1200000,
,,,-52.00002562E-9,1.1200000,
,,,-48.00002529E-9,1.1360000,
,,,-44.00002496E-9,1.1520001,
,,,-40.00002463E-9,1.1440001,
,,,-36.00002429E-9,1.1440001,
,,,-32.00002396E-9,1.1280000,
,,,-28.00002541E-9,1.1200000,
,,,-24.00002508E-9,1.1040001,
,,,-20.0000247E-9,1.1120001,
,,,-16.0000262E-9,1.0880001,
,,,-12.0000259E-9,1.0720000,
,,,-8.000025531E-9,976.000070572E-3,
,,,-4.00002564E-9,800.000011921E-3,
,,,-25.75717384E-15,688.000023365E-3,
,,,3.99997413E-9,728.000044823E-3,
,,,7.999974017E-9,896.000027657E-3,
,,,11.9999743E-9,1.0320001,
,,,15.9999729E-9,1.0800000,
,,,19.9999732E-9,1.0480001,
,,,23.99997356E-9,992.000043392E-3,
,,,27.99997390E-9,944.000065327E-3,
,,,31.99997423E-9,928.000032902E-3,
,,,35.99997456E-9,928.000032902E-3,
,,,39.99997489E-9,960.000038147E-3,
,,,43.99997167E-9,968.000054359E-3,
,,,47.99997200E-9,1.000000,
,,,51.99997233E-9,1.000000,
,,,55.999972659E-9,1.0240000,
,,,59.999969437E-9,1.0240000,
,,,63.999969768E-9,1.0800000,
,,,67.999970099E-9,1.1520001,
,,,71.999970430E-9,1.1920000,
,,,75.999970761E-9,1.2240001,
,,,79.999971092E-9,1.2400000,
,,,83.999971423E-9,1.2320001,
,,,87.999971754E-9,1.2320001,
,,,91.999972085E-9,1.2640001,
,,,95.999972416E-9,1.3040000,
,,,99.999972747E-9,1.3120000,
,,,103.9999731E-9,1.2960000,
,,,107.9999734E-9,1.2640001,
,,,111.9999737E-9,1.2400000,
,,,115.9999741E-9,1.2240001,
,,,119.9999673E-9,1.2400000,
,,,123.9999676E-9,1.2560000,
,,,127.9999680E-9,1.2480000,
,,,131.9999683E-9,1.2320001,
,,,135.9999686E-9,1.2160001,
,,,139.9999690E-9,1.2080001,
,,,143.9999693E-9,1.2160001,
,,,147.9999696E-9,1.2400000,
,,,151.99996994E-9,1.2560000,
,,,155.99997027E-9,1.2720001,
,,,159.99997061E-9,1.2720001,
,,,163.99997094E-9,1.2560000,
,,,167.99997127E-9,1.2400000,
,,,171.99997160E-9,1.2240001,
,,,175.99997193E-9,1.2160001,
,,,179.99997226E-9,1.2320001,
,,,183.99997259E-9,1.2400000,
,,,187.99997292E-9,1.2080001,
,,,191.99997325E-9,1.1760000,
,,,195.99997358E-9,1.1600001,
,,,199.99997392E-9,1.1360000,
,,,203.99997425E-9,1.1520001,
,,,207.99997458E-9,1.1680001,
,,,211.99997491E-9,1.1920000,
,,,215.99996103E-9,1.1760000,
,,,219.99996136E-9,1.1520001,
,,,223.99996169E-9,1.1440001,
,,,227.99996202E-9,1.1680001,
,,,231.99996235E-9,1.1680001,
,,,235.99996268E-9,1.1840000,
,,,239.99996301E-9,1.1840000,
,,,243.99997756E-9,1.1680001,
,,,247.99996368E-9,1.1440001,
,,,251.99997822E-9,1.1280000,
,,,255.99996434E-9,1.1200000,
,,,259.99997888E-9,1.1280000,
,,,263.99996500E-9,1.1200000,
,,,267.99997954E-9,1.1120001,
,,,271.99996566E-9,1.0960001,
,,,275.99998020E-9,1.0800000,
,,,279.99996632E-9,1.0880001,
,,,283.99995244E-9,1.0800000,
,,,287.99996699E-9,1.0960001,
,,,291.99995311E-9,1.1040001,
,,,295.99996765E-9,1.0960001,
,,,299.99995377E-9,1.1120001,
,,,303.99996831E-9,1.1120001,
,,,307.99995443E-9,1.0960001,
,,,311.99996897E-9,1.1040001,
,,,315.99995509E-9,1.0960001,
,,,319.99996963E-9,1.1040001,
,,,323.99995575E-9,1.0800000,
,,,327.99997030E-9,1.0880001,
,,,331.99995642E-9,1.0640000,
,,,335.99997096E-9,1.0640000,
,,,339.99995708E-9,1.0480001,
,,,343.99997162E-9,1.0480001,
,,,347.99995774E-9,1.0560000,
,,,351.99997228E-9,1.0800000,
,,,355.99995840E-9,1.1040001,
,,,359.99997294E-9,1.1360000,
,,,363.99995906E-9,1.1520001,
,,,367.99997361E-9,1.1760000,
,,,371.99995973E-9,1.1920000,
,,,375.99997427E-9,1.2000000,
,,,379.99996039E-9,1.2160001,
,,,383.99997493E-9,1.2240001,
,,,387.99996105E-9,1.2320001,
,,,391.99997559E-9,1.2240001,
,,,395.99996171E-9,1.2000000,
,,,399.99997625E-9,1.2000000,
,,,403.999962373E-9,1.1920000,
,,,407.999948493E-9,1.1680001,
,,,411.999963035E-9,1.1840000,
,,,415.999949155E-9,1.1680001,
,,,419.999963697E-9,1.1600001,
,,,423.999949817E-9,1.1600001,
,,,427.999964359E-9,1.1520001,
,,,431.999950479E-9,1.1520001,
,,,435.999965021E-9,1.1520001,
,,,439.999951141E-9,1.1680001,
,,,443.999965682E-9,1.1680001,
,,,447.999951803E-9,1.1600001,
,,,451.999966344E-9,1.1600001,
,,,455.999952464E-9,1.1600001,
,,,459.999967006E-9,1.1760000,
,,,463.999953126E-9,1.1520001,
,,,467.999967668E-9,1.1440001,
,,,471.999953788E-9,1.1360000,
,,,475.999968330E-9,1.1360000,
,,,479.999982872E-9,1.1200000,
,,,483.999940570E-9,1.1120001,
,,,487.999955112E-9,1.1040001,
,,,491.999969654E-9,1.1120001,
,,,495.999984196E-9,1.1040001,
,,,499.999941894E-9,1.0960001,
,,,503.999956436E-9,1.0960001,
,,,507.999970978E-9,1.0960001,
,,,511.999985520E-9,1.1040001,
,,,515.999943218E-9,1.1040001,
,,,519.999957760E-9,1.1040001,
,,,523.999972302E-9,1.1120001,
,,,527.999986843E-9,1.1120001,
,,,531.999944542E-9,1.1120001,
,,,535.999959084E-9,1.0960001,
,,,539.999973626E-9,1.0880001,
,,,543.999931324E-9,1.0880001,
,,,547.999945866E-9,1.0800000,
,,,551.999960408E-9,1.0720000,
,,,555.999974949E-9,1.0560000,
,,,559.999932648E-9,1.0640000,
,,,563.999947190E-9,1.0560000,
,,,567.999961731E-9,1.0560000,
,,,571.999976273E-9,1.0400001,
,,,575.999933972E-9,1.0480001,
,,,579.999948513E-9,1.0480001,
,,,583.999963055E-9,1.0560000,
,,,587.999977597E-9,1.0640000,
,,,591.999935295E-9,1.0720000,
,,,595.999949837E-9,1.0720000,
,,,599.999964379E-9,1.0720000,
,,,603.999978921E-9,1.0720000,
,,,607.999936619E-9,1.0800000,
,,,611.999951161E-9,1.0640000,
,,,615.999965703E-9,1.0640000,
,,,619.999980245E-9,1.0640000,
,,,623.999937943E-9,1.0720000,
,,,627.999952485E-9,1.0640000,
,,,631.999967027E-9,1.0720000,
,,,635.999981569E-9,1.0640000,
,,,639.999939267E-9,1.0800000,
,,,643.999953809E-9,1.0880001,
,,,647.999968351E-9,1.0960001,
,,,651.999982892E-9,1.1120001,
,,,655.999940591E-9,1.1200000,
,,,659.999955133E-9,1.1280000,
,,,663.999969674E-9,1.1360000,
,,,667.999927373E-9,1.1440001,
,,,671.999941915E-9,1.1360000,
,,,675.999956457E-9,1.1440001,
,,,679.999970998E-9,1.1440001,
,,,683.999928697E-9,1.1360000,
,,,687.999943239E-9,1.1280000,
,,,691.999957780E-9,1.1280000,
,,,695.999972322E-9,1.1200000,
,,,699.999930021E-9,1.1120001,
,,,703.999944562E-9,1.0960001,
,,,707.999959104E-9,1.1040001,
,,,711.999973646E-9,1.0960001,
,,,715.999931344E-9,1.0960001,
,,,719.999945886E-9,1.0800000,
,,,723.999960428E-9,1.0880001,
,,,727.999974970E-9,1.0880001,
,,,731.999932668E-9,1.0960001,
,,,735.999947210E-9,1.0880001,
,,,739.999961752E-9,1.0880001,
,,,743.999976294E-9,1.0880001,
,,,747.999933992E-9,1.0960001,
,,,751.999948534E-9,1.0720000,
,,,755.999963076E-9,1.0800000,
,,,759.999977618E-9,1.0720000,
,,,763.999935316E-9,1.0880001,
,,,767.999949858E-9,1.0720000,
,,,771.999964400E-9,1.0640000,
,,,775.999978941E-9,1.0640000,
,,,779.999936640E-9,1.0560000,
,,,783.999951182E-9,1.0560000,
,,,787.999965723E-9,1.0560000,
,,,791.999923422E-9,1.0640000,
,,,795.999937964E-9,1.0640000,
,,,799.999952505E-9,1.0720000,
,,,803.999967047E-9,1.0800000,
,,,807.999924746E-9,1.0880001,
,,,811.999939287E-9,1.0960001,
,,,815.999953829E-9,1.0960001,
,,,819.999968371E-9,1.0960001,
,,,823.999926070E-9,1.0960001,
,,,827.999940611E-9,1.0960001,
,,,831.999955153E-9,1.0960001,
,,,835.999969695E-9,1.0800000,
,,,839.999927393E-9,1.0880001,
,,,843.999941935E-9,1.0800000,
,,,847.999956477E-9,1.0800000,
,,,851.999971019E-9,1.0640000,
,,,855.999928717E-9,1.0640000,
,,,859.999943259E-9,1.0560000,
,,,863.999957801E-9,1.0560000,
,,,867.999972343E-9,1.0480001,
,,,871.999930041E-9,1.0640000,
,,,875.999944583E-9,1.0560000,
,,,879.999959125E-9,1.0560000,
,,,883.999973667E-9,1.0560000,
,,,887.999931365E-9,1.0640000,
,,,891.999945907E-9,1.0560000,
,,,895.999960449E-9,1.0800000,
,,,899.999974990E-9,1.0720000,
,,,903.999932689E-9,1.0720000,
,,,907.999947231E-9,1.0800000,
,,,911.999961772E-9,1.0880001,
,,,915.999976314E-9,1.0880001,
,,,919.999934013E-9,1.0960001,
,,,923.999948554E-9,1.0960001,
,,,927.999963096E-9,1.0960001,
,,,931.999920795E-9,1.0800000,
,,,935.999935336E-9,1.0960001,
,,,939.999949878E-9,1.0960001,
,,,943.999964420E-9,1.0960001,
,,,947.999922118E-9,1.0960001,
,,,951.999936660E-9,1.1040001,
,,,955.999894359E-9,1.0960001,
,,,959.999965744E-9,1.1040001,
,,,963.999923442E-9,1.1040001,
,,,967.999994828E-9,1.0880001,
,,,971.999952526E-9,1.0880001,
,,,975.999910224E-9,1.0880001,
,,,979.999981610E-9,1.0880001,
,,,983.999939308E-9,1.0800000,
,,,987.999897006E-9,1.0800000,
,,,991.999968392E-9,1.0720000,
,,,995.999926090E-9,1.0640000,
,,,1.000000E-6,1.0560000,
,,,1.0040000E-6,1.0720000,
,,,1.0079999E-6,1.0480001,
,,,1.0120000E-6,1.0640000,
,,,1.0159999E-6,1.0560000,
,,,1.0199999E-6,1.0720000,
,,,1.0240000E-6,1.0560000,
,,,1.0279999E-6,1.0640000,
,,,1.0320000E-6,1.0720000,
,,,1.0360000E-6,1.0720000,
,,,1.0399999E-6,1.0800000,
,,,1.0440000E-6,1.0800000,
,,,1.0479999E-6,1.0800000,
,,,1.0519999E-6,1.0800000,
,,,1.0560000E-6,1.0880001,
,,,1.0599999E-6,1.0800000,
,,,1.0639999E-6,1.0880001,
,,,1.0680000E-6,1.0720000,
,,,1.0719999E-6,1.0800000,
,,,1.0760000E-6,1.0800000,
,,,1.0799999E-6,1.0640000,
,,,1.0839999E-6,1.0800000,
,,,1.0880000E-6,1.0800000,
,,,1.0919999E-6,1.0720000,
,,,1.0959999E-6,1.0720000,
,,,1.1000000E-6,1.0720000,
,,,1.1039999E-6,1.0640000,
,,,1.1080000E-6,1.0560000,
,,,1.1119999E-6,1.0640000,
,,,1.1159999E-6,1.0640000,
,,,1.1200000E-6,1.0720000,
,,,1.1239999E-6,1.0560000,
,,,1.1279999E-6,1.0560000,
,,,1.1320000E-6,1.0480001,
,,,1.1359999E-6,1.0480001,
,,,1.1400000E-6,1.0480001,
,,,1.1440000E-6,1.0480001,
,,,1.1479999E-6,1.0400001,
,,,1.1520000E-6,1.0560000,
,,,1.1559999E-6,1.0560000,
,,,1.1599999E-6,1.0720000,
,,,1.1640000E-6,1.0720000,
,,,1.1679999E-6,1.0800000,
,,,1.1720000E-6,1.0880001,
,,,1.1760000E-6,1.1040001,
,,,1.1799999E-6,1.1120001,
,,,1.1840000E-6,1.1040001,
,,,1.1879999E-6,1.1120001,
,,,1.1919999E-6,1.1200000,
,,,1.1960000E-6,1.0960001,
,,,1.1999999E-6,1.0960001,
,,,1.2039999E-6,1.1120001,
,,,1.2080000E-6,1.1040001,
,,,1.2119999E-6,1.0960001,
,,,1.2160000E-6,1.0880001,
,,,1.2199999E-6,1.0800000,
,,,1.2239999E-6,1.0800000,
,,,1.2280000E-6,1.0800000,
,,,1.2319999E-6,1.0800000,
,,,1.2359999E-6,1.0800000,
,,,1.2400000E-6,1.0720000,
,,,1.2439999E-6,1.0640000,
,,,1.2480000E-6,1.0640000,
,,,1.2519999E-6,1.0720000,
,,,1.2559999E-6,1.0640000,
,,,1.2600000E-6,1.0720000,
,,,1.2639999E-6,1.0720000,
,,,1.2679999E-6,1.0640000,
,,,1.2720000E-6,1.0560000,
,,,1.2759999E-6,1.0560000,
,,,1.2800000E-6,1.0560000,
,,,1.2839999E-6,1.0640000,
,,,1.2879999E-6,1.0560000,
,,,1.2920000E-6,1.0560000,
,,,1.2959999E-6,1.0560000,
,,,1.2999999E-6,1.0640000,
,,,1.3040000E-6,1.0640000,
,,,1.3079999E-6,1.0800000,
,,,1.3119999E-6,1.0800000,
,,,1.3160000E-6,1.0880001,
,,,1.3199999E-6,1.0880001,
,,,1.3240000E-6,1.0880001,
,,,1.3279999E-6,1.0960001,
,,,1.3319999E-6,1.0880001,
,,,1.3360000E-6,1.0880001,
,,,1.3399999E-6,1.1040001,
,,,1.3439999E-6,1.0880001,
,,,1.3480000E-6,1.0800000,
,,,1.3519999E-6,1.0800000,
,,,1.3560000E-6,1.0800000,
,,,1.3599999E-6,1.0720000,
,,,1.3639999E-6,1.0640000,
,,,1.3680000E-6,1.0640000,
,,,1.3719999E-6,1.0640000,
,,,1.3759999E-6,1.0720000,
,,,1.3800000E-6,1.0560000,
,,,1.3839999E-6,1.0720000,
,,,1.3880000E-6,1.0560000,
,,,1.3919999E-6,1.0560000,
,,,1.3959999E-6,1.0560000,
,,,1.4000000E-6,1.0640000,
,,,1.4039999E-6,1.0560000,
,,,1.4079999E-6,1.0480001,
,,,1.4120000E-6,1.0560000,
,,,1.4159999E-6,1.0720000,
,,,1.4200000E-6,1.0640000,
,,,1.4239999E-6,1.0880001,
,,,1.4279999E-6,1.0800000,
,,,1.4320000E-6,1.0880001,
,,,1.4359999E-6,1.0880001,
,,,1.4399999E-6,1.0880001,
,,,1.4440000E-6,1.0880001,
,,,1.4479999E-6,1.0880001,
,,,1.4519999E-6,1.0960001,
,,,1.4559999E-6,1.0960001,
,,,1.4599999E-6,1.0960001,
,,,1.4640000E-6,1.0880001,
,,,1.4679999E-6,1.0800000,
,,,1.4719999E-6,1.0880001,
,,,1.4760000E-6,1.0800000,
,,,1.4799999E-6,1.0800000,
,,,1.4839999E-6,1.0720000,
,,,1.4880000E-6,1.0640000,
,,,1.4919999E-6,1.0800000,
,,,1.4960000E-6,1.0640000,
,,,1.4999999E-6,1.0640000,
,,,1.5039999E-6,1.0640000,
,,,1.5080000E-6,1.0560000,
,,,1.5119999E-6,1.0480001,
,,,1.5159999E-6,1.0560000,
,,,1.5200000E-6,1.0560000,
,,,1.5239999E-6,1.0480001,
,,,1.5280000E-6,1.0480001,
,,,1.5319999E-6,1.0480001,
,,,1.5359999E-6,1.0480001,
,,,1.5400000E-6,1.0560000,
,,,1.5439999E-6,1.0560000,
,,,1.5479999E-6,1.0800000,
,,,1.5520000E-6,1.0720000,
,,,1.5559999E-6,1.0880001,
,,,1.5599999E-6,1.0880001,
,,,1.5639999E-6,1.0960001,
,,,1.5679999E-6,1.0960001,
,,,1.5720000E-6,1.0880001,
,,,1.5759999E-6,1.0880001,
,,,1.5799999E-6,1.0960001,
,,,1.5840000E-6,1.0960001,
,,,1.5879999E-6,1.0880001,
,,,1.5919999E-6,1.0880001,
,,,1.5959999E-6,1.0800000,
,,,1.5999999E-6,1.0880001,
,,,1.6040000E-6,1.0800000,
,,,1.6079999E-6,1.0800000,
,,,1.6119999E-6,1.0640000,
